{
  "compilerOptions": {
    "module": "commonjs",
    "target": "es2020",
    "baseUrl": ".",
    "paths": {
      "@db": ["./src/db.js"],
      "@checkauth": ["./src/middleware/checkauth.js"],
      "@router": ["./src/router.js"],
      "@/*": ["./*"]
    }
  },
  "include": ["src/**/*"],
  "exclude": ["node_modules"]
}
